<?xml version="1.0" encoding="utf-8"?>
<!-- Generator: Adobe Illustrator 21.0.0, SVG Export Plug-In . SVG Version: 6.00 Build 0)  -->
<svg version="1.1" id="Layer_1" xmlns="http://www.w3.org/2000/svg" xmlns:xlink="http://www.w3.org/1999/xlink" x="0px" y="0px"
	 viewBox="0 0 24 24" style="enable-background:new 0 0 24 24;" xml:space="preserve">
<style type="text/css">
	.st0{fill-rule:evenodd;clip-rule:evenodd;fill:#3ABFEF;}
</style>
<path class="st0" d="M12,4.5C5.4,4.5,0,12,0,12s5.4,7.5,12,7.5S24,12,24,12S18.6,4.5,12,4.5z M4,13.1C3.4,12.5,3,12,3,12
	s0.5-0.7,1.4-1.5c1.1-1,2.2-1.8,3.2-2.4C8.5,7.7,10,7,12,6.9c1.6,0,2.8,0.4,3.4,0.6c0,0,2.5,0.9,4.9,3.6c0,0.1,0.7,0.8,0.7,0.8l0,0
	c0,0-0.4,0.4-1,1.1C14.8,18.5,9.3,18.6,4,13.1z"/>
<circle class="st0" cx="12" cy="12" r="3"/>
</svg>
